[start]
20160101	0	20300101	0	50700	999999	0	0	1	1	0	150	0	0	0	0	7500	0	2000	0	500	0	0	0	Some Cats only appear here! All Cats here are Rare or above.
20180109	1100	20300101	1100	50700	999999	0	0	0	1	0	0	0	0	10000	0	0	0	0	0	0	0	0	0	
20170101	0	20300101	0	80200	999999	0	0	2	3	0	30	0	0	0	0	7500	0	2000	0	500	0	0	0		0	30	0	0	0	0	7500	0	2000	0	500	0	0	0		0	30	0	0	0	0	7500	0	2000	0	500	0	0	0	
20170101	0	20300101	0	80200	999999	0	0	3	3	0	75	0	0	0	0	7500	0	2000	0	500	0	0	0		0	75	0	0	0	0	7500	0	2000	0	500	0	0	0		0	75	0	0	0	0	7500	0	2000	0	500	0	0	0	
20200413	1100	20200427	1100	90400	999999	0	0	1	2	-1	0	0	0	0	0	0	0	0	0	0	0	0	0		502	150	0	0	0	0	7000	0	2500	0	500	0	0	0	Limited Edition Spring Cats ★ Check info for more details!
20200416	1100	20200502	000	90400	999999	0	0	0	4	-1	0	0	0	0	0	0	0	0	0	0	0	0	0		-1	0	0	0	0	0	0	0	0	0	0	0	0	0		-1	0	0	0	0	0	0	0	0	0	0	0	0	0		42	0	300	0	0	0	5100	0	3500	0	1400	0	0	0	【Limited Event】 Special chance for XP and Catamins! ★ On thru 5/1!
20200424	1100	20200427	1100	90400	999999	0	0	1	1	497	150	0	0	0	0	6970	0	2500	0	500	1	30	0	Hades of the Underworld lends his strength! ★ Tap banner for info!
20200424	1100	20300101	1100	90400	999999	0	0	1	4	-1	0	0	0	0	0	0	0	0	0	0	0	0	0		-1	0	0	0	0	0	0	0	0	0	0	0	0	0		-1	0	0	0	0	0	0	0	0	0	0	0	0	0		504	0	0	0	0	0	0	0	0	0	10000	0	0	0	Get an Uber Rare Cat!! 100% Uber drop Rate in the PLATINUM CAPSULES!
20200424	1100	20200427	1100	90400	999999	0	0	1	2	-1	0	0	0	0	0	0	0	0	0	0	0	0	0		502	150	0	0	0	0	7000	0	2500	0	500	1	0	0	★ Easter Carnival ★ Bright n' Blooming Capsules w/ Uber Guarantee!
20200427	1100	20200429	1100	90400	999999	0	0	1	1	424	150	0	0	0	0	6970	0	2500	0	500	0	30	0	A wacky variety set of mighty Uber Cats! ★ Tap banner for info!
20200429	1100	20200501	1100	90400	999999	0	0	1	1	475	150	0	0	0	0	6970	0	2500	0	500	0	30	0	Heroes of Japanese fantasy with 2 battle modes! ★ Tap banner for info!
20200501	1100	20200504	1100	90400	999999	0	0	1	1	503	150	0	0	0	0	6500	0	2500	0	1000	0	0	0	All Limited Ubers from Uberfest/Epicfest! Huge Uber drop rate boost!
20200501	1100	20200510	1100	90400	999999	0	0	0	2	-1	0	0	0	0	0	0	0	0	0	0	0	0	0		5	0	0	2	500	0	7000	0	2000	0	500	0	0	0	★ Limited Capsules ★ Pick up extra Catseyes in this special Capsule set!
20200504	1100	20200506	1100	90400	999999	0	0	1	1	421	150	0	0	0	0	6970	0	2500	0	500	0	30	0	Eldritch Cats(?) from beyond, with a mystery Legend! ★ Tap banner for info!
20200506	1100	20200508	1100	90400	999999	0	0	1	1	454	150	0	0	0	0	7000	0	2500	0	500	0	0	0	Spooky beauties from the netherworld! It's the GIRLS & MONSTERS!
20200508	1100	20200510	1100	90400	999999	0	0	1	1	448	150	0	0	0	0	6970	0	2500	0	500	1	30	0	★ Elemental Pixies ★ Cosmic powers brought to life, with a mystery elemental!
20200510	1100	20200512	1100	90400	999999	0	0	1	1	445	150	0	0	0	0	6970	0	2500	0	500	0	30	0	Ultimate Cat artillery, with a top-secret Legend?! ★ Tap banner for info!
20200510	1100	20200518	1100	90400	999999	0	0	0	2	-1	0	0	0	0	0	0	0	0	0	0	0	0	0		3	0	300	0	400	0	2000	0	7000	0	600	0	0	0	Limited Capsules ★ Collect Catfruit by drawing from this set!
20200512	1100	20200515	1100	90400	999999	0	0	1	1	427	150	0	0	0	0	6970	0	2500	0	500	0	30	0	Slay your foes with the mighty Vajiras! ★ Tap banner for info!
20200515	1100	20200518	1100	90400	999999	0	0	1	1	501	150	0	0	0	0	6500	0	2600	0	900	0	0	0	Epicfest is here with 3 exclusive heroes and higher drop rates!
20200516	1100	20200602	000	90400	999999	0	0	0	4	-1	0	0	0	0	0	0	0	0	0	0	0	0	0		-1	0	0	0	0	0	0	0	0	0	0	0	0	0		-1	0	0	0	0	0	0	0	0	0	0	0	0	0		43	0	300	0	0	0	5100	0	3500	0	1400	0	0	0	【Limited Event】 Special chance for XP and Catamins! ★ On thru 6/1!
[end]
