[start]
20180109	1100	20300101	1100	50700	999999	0	0	0	1	0	0	0	0	10000	0	0	0	0	0	0	0	0	0	
20170101	0	20300101	0	80200	999999	0	0	2	3	0	30	0	0	0	0	7500	0	2000	0	500	0	0	0		0	30	0	0	0	0	7500	0	2000	0	500	0	0	0		0	30	0	0	0	0	7500	0	2000	0	500	0	0	0	
20170101	0	20300101	0	80200	999999	0	0	3	3	0	75	0	0	0	0	7500	0	2000	0	500	0	0	0		0	75	0	0	0	0	7500	0	2000	0	500	0	0	0		0	75	0	0	0	0	7500	0	2000	0	500	0	0	0	
20201009	1100	20300101	1100	90900	999999	0	0	1	4	-1	0	0	0	0	0	0	0	0	0	0	0	0	0		-1	0	0	0	0	0	0	0	0	0	0	0	0	0		-1	0	0	0	0	0	0	0	0	0	0	0	0	0		525	0	0	0	0	0	0	0	0	0	10000	0	0	0	Get an Uber Rare Cat!! 100% Uber drop Rate in the PLATINUM CAPSULES!
20201113	1100	20300101	1100	91000	999999	0	0	1	4	-1	0	0	0	0	0	0	0	0	0	0	0	0	0		-1	0	0	0	0	0	0	0	0	0	0	0	0	0		-1	0	0	0	0	0	0	0	0	0	0	0	0	0		543	0	0	0	0	0	0	0	0	0	10000	0	0	0	Get an Uber Rare Cat!! 100% Uber drop Rate in the PLATINUM CAPSULES!
20210212	000	20300101	1100	100200	999999	0	0	1	4	-1	0	0	0	0	0	0	0	0	0	0	0	0	0		-1	0	0	0	0	0	0	0	0	0	0	0	0	0		-1	0	0	0	0	0	0	0	0	0	0	0	0	0		556	0	0	0	0	0	0	0	0	0	10000	0	0	0	Get an Uber Rare Cat!! 100% Uber drop Rate in the PLATINUM CAPSULES!
20210503	1100	20300101	000	100400	999999	0	0	0	3	-1	0	0	0	0	0	0	0	0	0	0	0	0	0		-1	0	0	0	0	0	0	0	0	0	0	0	0	0		62	0	0	0	0	0	7400	0	2100	0	500	0	0	0	【Limited】 Collect Li'l Cats only during this event!
20210416	1100	20300101	000	100400	999999	0	0	0	4	-1	0	0	0	0	0	0	0	0	0	0	0	0	0		-1	0	0	0	0	0	0	0	0	0	0	0	0	0		-1	0	0	0	0	0	0	0	0	0	0	0	0	0		63	0	300	0	0	0	5100	0	3500	0	1400	0	0	0	【Limited Event】 Special chance for XP and Catamins!
20210507	1100	20300101	1100	100400	999999	0	0	1	4	-1	0	0	0	0	0	0	0	0	0	0	0	0	0		-1	0	0	0	0	0	0	0	0	0	0	0	0	0		-1	0	0	0	0	0	0	0	0	0	0	0	0	0		577	0	0	0	0	0	0	0	0	0	10000	0	0	0	Get an Uber Rare Cat!! 100% Uber drop Rate in the PLATINUM CAPSULES!
20210709	0	20300101	1100	100600	999999	0	0	1	4	-1	0	0	0	0	0	0	0	0	0	0	0	0	0		-1	0	0	0	0	0	0	0	0	0	0	0	0	0		-1	0	0	0	0	0	0	0	0	0	0	0	0	0		592	0	0	0	0	0	0	0	0	0	10000	0	0	0	Get an Uber Rare Cat!! 100% Uber drop Rate in the PLATINUM CAPSULES!	0	0	0	4	fr	Obtiens un ultra rare ! 100 % de chances avec les Chapsules platine !	it	Ottieni un gatto ultra raro! 100% possibilità di Ultra nelle CAPSULE PLATINO!	de	Hol dir eine megaseltene Katze!! 100-%-Chance in den PLATINKAPSELN!	es	¡Gana un gato megarraro! Garantizado en las BOLAS DE PLATINO.
20210827	1100	20300101	1100	100700	999999	0	0	1	4	-1	0	0	0	0	0	0	0	0	0	0	0	0	0		-1	0	0	0	0	0	0	0	0	0	0	0	0	0		-1	0	0	0	0	0	0	0	0	0	0	0	0	0		603	0	0	0	0	0	0	0	0	0	10000	0	0	0	Get an Uber Rare Cat!! 100% Uber drop Rate in the PLATINUM CAPSULES!	0	0	0	4	fr	Obtiens un ultra rare ! 100 % de chances avec les Chapsules platine !	it	Ottieni un gatto ultra raro! 100% possibilità di Ultra nelle CAPSULE PLATINO!	de	Hol dir eine megaseltene Katze!! 100-%-Chance in den PLATINKAPSELN!	es	¡Gana un gato megarraro! Garantizado en las BOLAS DE PLATINO.
20210917	1100	20300101	1100	100800	999999	0	0	1	4	-1	0	0	0	0	0	0	0	0	0	0	0	0	0		-1	0	0	0	0	0	0	0	0	0	0	0	0	0		-1	0	0	0	0	0	0	0	0	0	0	0	0	0		616	0	0	0	0	0	0	0	0	0	10000	0	0	0	Get an Uber Rare Cat!! 100% Uber drop Rate in the PLATINUM CAPSULES!	0	0	0	4	fr	Obtiens un ultra rare ! 100 % de chances avec les Chapsules platine !	it	Ottieni un gatto ultra raro! 100% possibilità di Ultra nelle CAPSULE PLATINO!	de	Hol dir eine megaseltene Katze!! 100-%-Chance in den PLATINKAPSELN!	es	¡Gana un gato megarraro! Garantizado en las BOLAS DE PLATINO.
20211020	1100	20211022	1100	100900	999999	0	0	1	1	453	150	0	4	0	0	7000	0	2500	0	500	0	0	0	Metal baddies? No sweat for the METAL BUSTERS! Tap banner for info!	4	fr	Les Chasseurs de métal écrasent les ennemis métal ! Touche pour plus d'infos !	it	Cattivi metallici? Nessun problema per gli ANTIMETALLICI! Tocca il banner!	de	Metallbösewichte? Kein Problem für die EISENSPRENGER! Tippe auf das Banner!	es	¿Malos metálicos? Ningún problema para los ANTIMETÁLICOS. ¡Toca para saber más!
20211020	1100	20211022	1100	100900	999999	0	0	1	2	-1	0	0	0	0	0	0	0	0	0	0	0	0	0		523	150	0	4	0	0	7000	0	2500	0	500	0	0	0	Defend your Cats with the Wave Busters! ★ With Increasing Capsules!	0	4	fr	Défends tes Chats avec les Chasseurs de vagues ! ★ Avec des Chapsules à bonus !	it	Difendi i tuoi Gatti con gli Antiondate! ★ Con capsule bonus!	de	Verteidige deine Katzen mit den Wellenbrechern! ★ Mit Riesenkapseln!	es	¡Defiende a tus gatos con los Antioleada! ★ ¡Con bolas colmadas!
20211022	1100	20211025	1100	100900	999999	0	0	1	1	608	150	0	0	0	0	6970	0	2500	0	500	1	30	0	Mighty NEW hero Shiro Amakusa, good against Black & Aku! ★Tap banner for info!	4	fr	Nouveau Shiro Amakusa, eff. contre noirs et Akus ! ★Bannière pour plus d'infos.	it	Shiro Amakusa: il NUOVO potente eroe, efficace vs neri e Aku! ★Tocca il banner!	de	NEUER Held Shiro Amakusa, effektiv gg. Schwarz & Aku! ★ Tippe auf das Banner!	es	Amakusa Shiro es eficaz contra akus y enemigos negros. ★ ¡Toca para saber más!
20211022	1100	20300101	1100	100900	999999	0	0	1	4	-1	0	0	0	0	0	0	0	0	0	0	0	0	0		-1	0	0	0	0	0	0	0	0	0	0	0	0	0		-1	0	0	0	0	0	0	0	0	0	0	0	0	0		617	0	0	0	0	0	0	0	0	0	10000	0	0	0	Get an Uber Rare Cat!! 100% Uber drop Rate in the PLATINUM CAPSULES!	0	0	0	4	fr	Obtiens un ultra rare ! 100 % de chances avec les Chapsules platine !	it	Ottieni un gatto ultra raro! 100% possibilità di Ultra nelle CAPSULE PLATINO!	de	Hol dir eine megaseltene Katze!! 100-%-Chance in den PLATINKAPSELN!	es	¡Gana un gato megarraro! Garantizado en las BOLAS DE PLATINO.
20211025	1100	20211108	1100	100900	999999	0	0	1	1	511	150	0	4216	0	0	7000	0	2500	0	500	0	0	0	Limited Shoumetsu Toshi Collab Capsules! ★ Tap banner for info!	4	fr	Limited Shoumetsu Toshi Collab Capsules! ★ Tap banner for info!	it	Limited Shoumetsu Toshi Collab Capsules! ★ Tap banner for info!	de	Limited Shoumetsu Toshi Collab Capsules! ★ Tap banner for info!	es	Limited Shoumetsu Toshi Collab Capsules! ★ Tap banner for info!
20211025	1100	20211027	1100	100900	999999	0	0	1	3	-1	0	0	0	0	0	0	0	0	0	0	0	0	0		-1	0	0	0	0	0	0	0	0	0	0	0	0	0		497	150	0	4216	0	0	6970	0	2500	0	500	0	30	0	The Almighties, supreme beings of Catkind! ★ Tap banner for info!	0	0	4	fr	Les Immortels, êtres suprêmes chez les Chats ! ★ Touche pour plus d’infos !	it	Gli Onnipotenti, esseri supremi di origine felina! ★ Tocca il banner!	de	Die Allmächtigen, die höchsten Wesen der Katzheit! ★ Tippe auf das Banner!	es	¡Los Todopoderosos, seres felinos supremos! ★ ¡Toca para saber más!
20211027	1100	20211029	1100	100900	999999	0	0	1	3	-1	0	0	0	0	0	0	0	0	0	0	0	0	0		-1	0	0	0	0	0	0	0	0	0	0	0	0	0		611	150	0	4216	0	0	6970	0	2500	0	500	0	30	0	New Hero LILIN joins the fight to crush the Aku! ★ Tap for more info!	0	0	4	fr	Le nouveau héros LILIN vient combattre les Akus ! ★ Touche pour plus d’infos !	it	LILIN vuole contribuire a distruggere gli Aku! ★ Tocca per saperne di più!	de	Die neue Heldin LILIN ist da, um die Aku zu besiegen! ★ Tippe für mehr Info!	es	La nueva heroína LILIN se une a la lucha contra los akus. ★ Toca para saber más.
20211029	1100	20211031	1100	100900	999999	0	0	1	1	517	150	0	4216	0	0	6970	0	2500	0	500	0	30	0	Uncanny Cats(?) from eldritch realms! ★ Tap banner for info!	4	fr	Chats surnaturels dont une unité légendaire ! ★ Touche pour plus d’infos !	it	Gatti arcani dall'aldilà con un Gatto leggendario misterioso! ★ Tocca il banner!	de	Schaurige Katzen (?) mit mystischer Legende! ★ Tippe auf das Banner!	es	Gatos sobrenaturales (?) ¡y una leyenda misteriosa! ★ ¡Toca para saber más!
20211029	1100	20211108	1100	101000	999999	0	0	1	2	-1	0	0	0	0	0	0	0	0	0	0	0	0	0		511	150	0	4216	0	0	7000	0	2500	0	500	0	0	0	Limited Shoumetsu Toshi Collab Capsules! ★ Tap banner for info!	0	4	fr	Limited Shoumetsu Toshi Collab Capsules! ★ Tap banner for info!	it	Limited Shoumetsu Toshi Collab Capsules! ★ Tap banner for info!	de	Limited Shoumetsu Toshi Collab Capsules! ★ Tap banner for info!	es	Limited Shoumetsu Toshi Collab Capsules! ★ Tap banner for info!
20211029	1100	20211108	1100	101000	999999	0	0	1	3	-1	0	0	0	0	0	0	0	0	0	0	0	0	0		-1	0	0	0	0	0	0	0	0	0	0	0	0	0		650	150	0	4216	0	0	7000	0	2500	0	500	0	0	0	Limited Halloween Capsules, with a NEW True form for Lilith Cat!	0	0	4	fr	Chapsules d'Halloween à durée limitée, nouv. forme ultime pour Lilith féline !	it	Capsule Halloween limitate, con una NUOVA Forma Reale per Gatta Lilith!	de	Limitierte Halloween-Kapseln mit einer NEUEN wahren Form für Lilith-Katze!	es	¡Bolas exclusivas de Halloween con una nueva forma final de Gata Lilit!
20211031	1100	20211102	1100	101000	999999	0	0	1	1	487	150	0	4216	0	0	6970	0	2500	0	500	0	30	0	For Justice and Cats! The Dark Heroes! ★ Tap banner for info!	4	fr	Justice féline, avec les Héros de l’ombre ! ★ Touche pour plus d’infos !	it	Per la giustizia e per i Gatti! Gli Eroi Oscuri! ★ Tocca il banner!	de	Für Gerechtigkeit und Katzen! Dunkle Helden! ★ Tippe auf das Banner!	es	¡Por la justicia felina! ¡Héroes Sombríos! ★ ¡Toca para saber más!
20211102	1100	20211105	1100	101000	999999	0	0	1	1	614	150	0	4216	0	0	6500	0	2600	0	900	0	0	0	Baby Garu joins the fight, with higher Uber Rare drop rates!	4	fr	La Maxi-fête est arrivée ! ★ Taux d’obt. d’ultra rare très élevé !	it	Il Festival Ultra è qui! ★ Probabilità alte di Ultra con ogni sorteggio!	de	Das Megafest ist da! ★ Extrahohe Chance auf Megaseltene bei jeder Ziehung!	es	¡Llega el Megafesti! ★ ¡Gran probabilidad de conseguir megarraros en cada bola!
20211105	1100	20211108	1100	101000	999999	0	0	1	1	627	150	0	4216	0	0	6970	0	2500	0	500	1	30	0	NEW hero Summoner Satoru, effective vs Aku! ★Tap banner for info!	4	fr	Nouveau Satoru invocateur, efficace contre Akus ! ★Bannière pour plus d'infos.	it	Satoru invocatore: il NUOVO eroe efficace vs Aku! ★Tocca il banner!	de	NEUER Held Beschwörer Satoru, effektiv gg. Aku! ★ Tippe auf das Banner!	es	El nuevo héroe, Invocador Satoru, es eficaz contra akus. ★ ¡Toca para saber más!
20211105	1100	20300101	1100	101000	999999	0	0	1	4	-1	0	0	0	0	0	0	0	0	0	0	0	0	0		-1	0	0	0	0	0	0	0	0	0	0	0	0	0		-1	0	0	0	0	0	0	0	0	0	0	0	0	0		635	0	0	4216	0	0	0	0	0	0	10000	0	0	0	Get an Uber Rare Cat!! 100% Uber drop Rate in the PLATINUM CAPSULES!	0	0	0	4	fr	Obtiens un ultra rare ! 100 % de chances avec les Chapsules platine !	it	Ottieni un gatto ultra raro! 100% possibilità di Ultra nelle CAPSULE PLATINO!	de	Hol dir eine megaseltene Katze!! 100-%-Chance in den PLATINKAPSELN!	es	¡Gana un gato megarraro! Garantizado en las BOLAS DE PLATINO.
20211105	1100	20211108	1100	101000	999999	0	0	1	2	-1	0	0	0	0	0	0	0	0	0	0	0	0	0		511	150	0	4216	0	0	7000	0	2500	0	500	1	0	0	Last Chance! Shoumetsu Toshi Set with 11-Draw Guarantee!	0	4	fr	Last Chance! Shoumetsu Toshi Set with 11-Draw Guarantee!	it	Last Chance! Shoumetsu Toshi Set with 11-Draw Guarantee!	de	Last Chance! Shoumetsu Toshi Set with 11-Draw Guarantee!	es	Last Chance! Shoumetsu Toshi Set with 11-Draw Guarantee!
20211105	1100	20211108	1100	101000	999999	0	0	1	3	-1	0	0	0	0	0	0	0	0	0	0	0	0	0		-1	0	0	0	0	0	0	0	0	0	0	0	0	0		650	150	0	4216	0	0	7000	0	2500	0	500	1	0	0	Limited Halloween Capsules, with a NEW True form for Lilith Cat!	0	0	4	fr	Chapsules d'Halloween à durée limitée, nouv. forme ultime pour Lilith féline !	it	Capsule Halloween limitate, con una NUOVA Forma Reale per Gatta Lilith!	de	Limitierte Halloween-Kapseln mit einer NEUEN wahren Form für Lilith-Katze!	es	¡Bolas exclusivas de Halloween con una nueva forma final de Gata Lilit!
[end]
