[start]
20160101	0	20300101	0	50700	999999	0	0	1	1	0	150	0	0	0	0	7500	0	2000	0	500	0	0	0	여기에서만 얻을 수 있는 레어 캐릭터가 100% 출현!!
20180109	1100	20300101	1100	50700	999999	0	0	0	1	0	0	0	0	10000	0	0	0	0	0	0	0	0	0	
20170101	0	20300101	0	80200	999999	0	0	2	3	0	30	0	0	0	0	7500	0	2000	0	500	0	0	0		0	30	0	0	0	0	7500	0	2000	0	500	0	0	0		0	30	0	0	0	0	7500	0	2000	0	500	0	0	0	
20170101	0	20300101	0	80200	999999	0	0	3	3	0	75	0	0	0	0	7500	0	2000	0	500	0	0	0		0	75	0	0	0	0	7500	0	2000	0	500	0	0	0		0	75	0	0	0	0	7500	0	2000	0	500	0	0	0	
20191223	1100	20300101	1100	90100	999999	0	0	1	4	-1	0	0	0	0	0	0	0	0	0	0	0	0	0		-1	0	0	0	0	0	0	0	0	0	0	0	0	0		-1	0	0	0	0	0	0	0	0	0	0	0	0	0		471	0	0	0	0	0	0	0	0	0	10000	0	0	0	울트라 슈퍼 레어 캐릭터를 반드시 뽑을 수 있는 「플래티넘 뽑기」
20200111	1100	20300101	1100	90100	999999	0	0	1	4	-1	0	0	0	0	0	0	0	0	0	0	0	0	0		-1	0	0	0	0	0	0	0	0	0	0	0	0	0		-1	0	0	0	0	0	0	0	0	0	0	0	0	0		480	0	0	0	0	0	0	0	0	0	10000	0	0	0	울트라 슈퍼 레어 캐릭터를 반드시 뽑을 수 있는 「플래티넘 뽑기」
20200210	1100	20200224	1100	90200	999999	0	0	1	1	485	150	0	3848	0	0	7000	0	2500	0	500	0	0	0	★「살아남아라! 개복치!」콜라보 뽑기 등장!★자세한 내용은 배너를 클릭!!★
20200216	1100	20200302	0	90200	999999	0	0	0	4	-1	0	0	0	0	0	0	0	0	0	0	0	0	0		-1	0	0	0	0	0	0	0	0	0	0	0	0	0		-1	0	0	0	0	0	0	0	0	0	0	0	0	0		38	0	300	0	0	0	5100	0	3500	0	1400	0	0	0	【기간한정】고양이 드링크와 XP를 GET할 수 있는 특별 뽑기!★ 3월 1일 까지!
20200218	1100	20200224	1100	90200	999999	0	0	1	1	486	150	0	0	0	0	7000	0	2500	0	500	0	0	0	★「살아남아라! 개복치!」콜라보 뽑기 등장!★자세한 내용은 배너를 클릭!!★
20200218	1100	20200221	1100	90200	999999	0	0	1	2	-1	0	0	0	0	0	0	0	0	0	0	0	0	0		439	150	0	0	0	0	6970	0	2500	0	500	0	30	0	★정의와 어둠 두 가지 능력을 가진 구세주! 시크릿 참전!?★자세한 내용은 배너를 클릭!!★
20200221	1100	20200224	1100	90200	999999	0	0	1	1	486	150	0	0	0	0	7000	0	2500	0	500	1	0	0	【종료 임박】 「살아남아라! 개복치!」콜라보 뽑기 등장!★10+1 연속 뽑기 울슈레 확정!★
20200221	1100	20200224	1100	90200	999999	0	0	1	2	-1	0	0	0	0	0	0	0	0	0	0	0	0	0		433	150	0	0	0	0	6970	0	2500	0	500	1	30	0	★각룡 그라디오스 참전! 압도적인 존재감 뿜뿜인 드래곤들! 자세한 내용은 배너를 클릭!★
20200224	1100	20200226	1100	90300	999999	0	0	1	1	442	150	0	0	0	0	6970	0	2500	0	500	0	30	0	★냥코 월드에 위대한 신들이 집결!!★시크릿 참전!?★자세한 내용은 배너를 클릭!!★
20200226	1100	20200228	1100	90300	999999	0	0	1	1	475	150	0	0	0	0	6970	0	2500	0	500	0	30	0	긴타로 참전!★냥코 월드 최대급 진화★자세한 내용은 배너를 클릭!★
20200228	1100	20200302	1100	90300	999999	0	0	1	1	483	150	0	0	0	0	6500	0	2600	0	900	0	0	0	강력한 한정 캐릭터 '재앙의 캐슬리' 참전!★울트라 슈퍼 레어 캐릭터 지금만 확률 초 UP!!
20200228	1100	20300101	1100	90300	999999	0	0	1	4	-1	0	0	0	0	0	0	0	0	0	0	0	0	0		-1	0	0	0	0	0	0	0	0	0	0	0	0	0		-1	0	0	0	0	0	0	0	0	0	0	0	0	0		484	0	0	0	0	0	0	0	0	0	10000	0	0	0	울트라 슈퍼 레어 캐릭터를 반드시 뽑을 수 있는 「플래티넘 뽑기」
[end]
