[start]
20180109	1100	20300101	1100	50700	999999	0	0	0	1	0	0	0	0	10000	0	0	0	0	0	0	0	0	0	
20170101	0	20300101	0	80200	999999	0	0	2	3	0	30	0	0	0	0	7500	0	2000	0	500	0	0	0		0	30	0	0	0	0	7500	0	2000	0	500	0	0	0		0	30	0	0	0	0	7500	0	2000	0	500	0	0	0	
20170101	0	20300101	0	80200	999999	0	0	3	3	0	75	0	0	0	0	7500	0	2000	0	500	0	0	0		0	75	0	0	0	0	7500	0	2000	0	500	0	0	0		0	75	0	0	0	0	7500	0	2000	0	500	0	0	0	
20200807	1100	20300101	1100	90700	999999	0	0	1	4	-1	0	0	0	0	0	0	0	0	0	0	0	0	0		-1	0	0	0	0	0	0	0	0	0	0	0	0	0		-1	0	0	0	0	0	0	0	0	0	0	0	0	0		522	0	0	0	0	0	0	0	0	0	10000	0	0	0	울트라 슈퍼 레어 캐릭터를 반드시 뽑을 수 있는 「플래티넘 뽑기」
20201007	1100	20201009	1100	90900	999999	0	0	1	2	-1	0	0	0	0	0	0	0	0	0	0	0	0	0		427	150	0	0	0	0	6970	0	2500	0	500	0	30	0	★검은 적에 강한 멋진 환수들! 자세한 내용은 배너를 클릭!★
20201009	1100	20201012	1100	90900	999999	0	0	1	2	-1	0	0	0	0	0	0	0	0	0	0	0	0	0		523	150	0	4	0	0	7000	0	2500	0	500	0	0	0	파동 공격에 강한 캐릭터가 총집합한 파동 바스터즈 등장!★보너스 UP 뽑기 개최 중!
20201009	1100	20300101	1100	90900	999999	0	0	1	4	-1	0	0	0	0	0	0	0	0	0	0	0	0	0		-1	0	0	0	0	0	0	0	0	0	0	0	0	0		-1	0	0	0	0	0	0	0	0	0	0	0	0	0		525	0	0	0	0	0	0	0	0	0	10000	0	0	0	울트라 슈퍼 레어 캐릭터를 반드시 뽑을 수 있는 ★플래티넘 뽑기★
20201012	1100	20201026	2359	90900	999999	0	0	4	1	13	0	0	0	2700	0	2300	0	1100	0	2500	1	1400	1	【기간한정】 빅쿠리맨 초코로 뽑을 수 있는 콜라보 한정 뽑기!★10월 26일까지!	이벤트 뽑기를 앞으로 	번 돌리면 한정 캐릭터가 반드시 출현!!
20201012	1100	20201026	1100	90900	999999	0	0	1	1	537	150	0	6616	0	0	6970	0	2500	0	500	0	30	0	악마vs천사! 빅쿠리맨 콜라보 뽑기!★자세한 내용은 배너를 클릭!
20201012	1100	20201014	1100	90900	999999	0	0	1	2	-1	0	0	0	0	0	0	0	0	0	0	0	0	0		519	150	0	6616	0	0	6970	0	2500	0	500	0	30	0	신 캐릭터 ★오이루가★ 참전! 수수께끼 투성이의 생명체들! 자세한 내용은 배너를 클릭!
20201014	1100	20201016	1100	90900	999999	0	0	1	2	-1	0	0	0	0	0	0	0	0	0	0	0	0	0		435	150	0	6616	0	0	6970	0	2500	0	500	0	30	0	압도적인 존재감을 내뿜는 강력한 드래곤들!★자세한 내용은 배너를 클릭!
20201016	1100	20201102	0	90900	999999	0	0	0	4	-1	0	0	0	0	0	0	0	0	0	0	0	0	0		-1	0	0	0	0	0	0	0	0	0	0	0	0	0		-1	0	0	0	0	0	0	0	0	0	0	0	0	0		52	0	300	0	0	0	5100	0	3500	0	1400	0	0	0	【기간한정】고양이 드링크와 XP를 GET할 수 있는 특별 뽑기!★ 11월 1일까지!
20201016	1100	20201019	1100	90900	999999	0	0	1	1	521	150	0	6616	0	0	6500	0	2600	0	900	0	0	0	울트라 슈퍼 레어 캐릭터가 총집합!★확률도 초 UP된 하이퍼 고양이 축제 개최 중!
20201016	1100	20201026	1100	90900	999999	0	0	1	2	-1	0	0	0	0	0	0	0	0	0	0	0	0	0		537	150	0	6616	0	0	6970	0	2500	0	500	0	30	0	악마vs천사! 빅쿠리맨 콜라보 뽑기!★자세한 내용은 배너를 클릭!
20201019	1100	20201021	1100	90900	999999	0	0	1	2	-1	0	0	0	0	0	0	0	0	0	0	0	0	0		507	150	0	6616	0	0	6970	0	2500	0	500	0	30	0	이세계에서 소환된 유쾌한 미소녀들! 시크릿 미소녀 참전!★자세한 내용은 배너를 클릭!
20201019	1100	20201026	1100	90900	999999	0	0	1	1	537	150	0	6616	0	0	6970	0	2500	0	500	0	30	0	악마vs천사! 빅쿠리맨 콜라보 뽑기!★자세한 내용은 배너를 클릭!
20201021	1100	20201023	1100	90900	999999	0	0	1	2	-1	0	0	0	0	0	0	0	0	0	0	0	0	0		446	150	0	6616	0	0	6970	0	2500	0	500	0	30	0	★냥코 군단의 초비밀 병기! 시크릿 참전!?★자세한 내용은 배너를 클릭!!★
20201023	1100	20201026	1100	90900	999999	0	0	1	2	-1	0	0	0	0	0	0	0	0	0	0	0	0	0		488	150	0	6616	0	0	6970	0	2500	0	500	1	30	0	정의와 어둠의 힘을 둘 다 갖춘 냥코 군단의 구세주들!★자세한 내용은 배너를 탭!
20201023	1100	20201026	1100	90900	999999	0	0	1	1	537	150	0	6616	0	0	6970	0	2500	0	500	1	30	0	★기간 임박!★ 악마vs천사! 빅쿠리맨 콜라보 뽑기!★10+1연속 뽑기 울슈레 확정!
[end]
