[start]
20180109	1100	20300101	1100	50700	999999	0	0	0	1	0	0	0	0	10000	0	0	0	0	0	0	0	0	0	
20170101	0	20300101	0	80200	999999	0	0	2	3	0	30	0	0	0	0	7500	0	2000	0	500	0	0	0		0	30	0	0	0	0	7500	0	2000	0	500	0	0	0		0	30	0	0	0	0	7500	0	2000	0	500	0	0	0	
20170101	0	20300101	0	80200	999999	0	0	3	3	0	75	0	0	0	0	7500	0	2000	0	500	0	0	0		0	75	0	0	0	0	7500	0	2000	0	500	0	0	0		0	75	0	0	0	0	7500	0	2000	0	500	0	0	0	
20210503	1100	20300101	0	100400	999999	0	0	0	3	-1	0	0	0	0	0	0	0	0	0	0	0	0	0		-1	0	0	0	0	0	0	0	0	0	0	0	0	0		62	0	0	0	0	0	7400	0	2100	0	500	0	0	0	【기간한정】 꼬맹이 고양이들을 손에 넣을 수 있는 특별 이벤트 뽑기 등장!
20210416	1100	20300101	0	100400	999999	0	0	0	4	-1	0	0	0	0	0	0	0	0	0	0	0	0	0		-1	0	0	0	0	0	0	0	0	0	0	0	0	0		-1	0	0	0	0	0	0	0	0	0	0	0	0	0		63	0	300	0	0	0	5100	0	3500	0	1400	0	0	0	【기간한정】 고양이 드링크와 XP를 GET할 수 있는 특별 뽑기!
20211022	1100	20300101	1100	100900	999999	0	0	1	4	-1	0	0	0	0	0	0	0	0	0	0	0	0	0		-1	0	0	0	0	0	0	0	0	0	0	0	0	0		-1	0	0	0	0	0	0	0	0	0	0	0	0	0		617	0	0	0	0	0	0	0	0	0	10000	0	0	0	울트라 슈퍼 레어 캐릭터 100% 획득 가능! ★플래티넘 뽑기★
20211105	1100	20300101	1100	100900	999999	0	0	1	4	-1	0	0	0	0	0	0	0	0	0	0	0	0	0		-1	0	0	0	0	0	0	0	0	0	0	0	0	0		-1	0	0	0	0	0	0	0	0	0	0	0	0	0		635	0	0	0	0	0	0	0	0	0	10000	0	0	0	울트라 슈퍼 레어 캐릭터 100% 획득 가능! ★플래티넘 뽑기★	0	0	0	0
20211119	1100	20300101	1100	101000	999999	0	0	1	4	-1	0	0	0	0	0	0	0	0	0	0	0	0	0		-1	0	0	0	0	0	0	0	0	0	0	0	0	0		-1	0	0	0	0	0	0	0	0	0	0	0	0	0		636	0	0	0	0	0	0	0	0	0	10000	0	0	0	울트라 슈퍼 레어 캐릭터 100% 획득 가능! ★플래티넘 뽑기★
20211122	1100	20300101	1100	101000	999999	0	0	1	5	-1	0	0	0	0	0	0	0	0	0	0	0	0	0		-1	0	0	0	0	0	0	0	0	0	0	0	0	0		-1	0	0	0	0	0	0	0	0	0	0	0	0	0		-1	0	0	0	0	0	0	0	0	0	0	0	0	0		639	0	0	0	0	0	0	0	0	0	9500	0	500	0	울슈레 이상 캐릭터 반드시 1개이상 확정 획득 가능! ★레전드 뽑기★
20211126	1100	20300101	1100	101000	999999	0	0	1	4	-1	0	0	0	0	0	0	0	0	0	0	0	0	0		-1	0	0	0	0	0	0	0	0	0	0	0	0	0		-1	0	0	0	0	0	0	0	0	0	0	0	0	0		637	0	0	0	0	0	0	0	0	0	10000	0	0	0	울트라 슈퍼 레어 캐릭터 100% 획득 가능! ★플래티넘 뽑기★
20211126	1100	20300101	1100	101000	999999	0	0	1	5	-1	0	0	0	0	0	0	0	0	0	0	0	0	0		-1	0	0	0	0	0	0	0	0	0	0	0	0	0		-1	0	0	0	0	0	0	0	0	0	0	0	0	0		-1	0	0	0	0	0	0	0	0	0	0	0	0	0		640	0	0	0	0	0	0	0	0	0	9500	0	500	0	울슈레 이상 캐릭터 반드시 1개이상 확정 획득 가능! ★레전드 뽑기★
20211213	1100	20211227	1100	110000	999999	0	0	1	2	-1	0	0	0	0	0	0	0	0	0	0	0	0	0		668	150	0	16384	0	0	7000	0	2500	0	500	0	0	0	귀여운 크리스마스 한정 캐릭터를 획득하자냥!★자세한 내용은 배너를 클릭!
20211222	1100	20211224	1100	110000	999999	0	0	1	3	-1	0	0	0	0	0	0	0	0	0	0	0	0	0		-1	0	0	0	0	0	0	0	0	0	0	0	0	0		498	150	0	16384	0	0	6970	0	2500	0	500	0	30	0	냥코 월드의 위대한 신들이 이곳에 집결!★자세한 내용은 배너를 클릭!
20211224	1100	20211227	1100	110000	999999	0	0	1	1	647	150	0	0	0	0	6970	0	2500	0	500	1	30	0	에이리언과 악마에 강한 신 캐릭터 '어둠의 정령 야미' 참전!★자세한 내용은 배너를 클릭!
20211224	1100	20211227	1100	110000	999999	0	0	1	2	-1	0	0	0	0	0	0	0	0	0	0	0	0	0		668	150	0	0	0	0	7000	0	2500	0	500	1	0	0	귀여운 크리스마스 한정 캐릭터를 획득하자냥!★자세한 내용은 배너를 클릭!
20211224	1100	20300101	1100	110000	999999	0	0	1	4	-1	0	0	0	0	0	0	0	0	0	0	0	0	0		-1	0	0	0	0	0	0	0	0	0	0	0	0	0		-1	0	0	0	0	0	0	0	0	0	0	0	0	0		655	0	0	0	0	0	0	0	0	0	9500	0	500	0	울슈레 이상 캐릭터 반드시 1개이상 확정 획득 가능! ★레전드 뽑기★
20211224	1100	20300101	1100	110000	999999	0	0	1	5	-1	0	0	0	0	0	0	0	0	0	0	0	0	0		-1	0	0	0	0	0	0	0	0	0	0	0	0	0		-1	0	0	0	0	0	0	0	0	0	0	0	0	0		-1	0	0	0	0	0	0	0	0	0	0	0	0	0		653	0	0	0	0	0	0	0	0	0	10000	0	0	0	울트라 슈퍼 레어 캐릭터 100% 획득 가능! ★플래티넘 뽑기★
20211227	1100	20220101	000	110000	999999	0	0	1	1	602	150	0	4216	0	0	6940	0	2500	0	500	0	60	0	★한정 울슈레 '고양이 왕녀' 포함 여성 캐릭터들이 총집결한 신 뽑기!★레전드 레어만 출현율 2배!★
20211227	1100	20211229	1100	110000	999999	0	0	1	2	-1	0	0	0	0	0	0	0	0	0	0	0	0	0		624	150	0	20600	0	0	6970	0	2500	0	500	0	30	0	베리어도 쉴드도 파괴하는 신캐릭터  '오코루가' 참전!★자세한 내용은 배너를 클릭!!
20211229	1100	20220101	000	110000	999999	0	0	1	2	-1	0	0	0	0	0	0	0	0	0	0	0	0	0		611	150	0	20600	0	0	6970	0	2500	0	500	0	30	0	악마 속성에 강한 신캐릭터 '리린' 참전!★자세한 내용은 배너를 클릭!!★
20220101	000	20220104	1100	110000	999999	0	0	1	1	675	150	0	4216	0	0	6500	0	2600	0	900	0	0	0	신 캐릭터 '요수 가루' 참전!★울슈레 출현율 초 UP! 울트라 고양이 축제 개최 중!
20220104	1100	20220106	1100	110000	999999	0	0	1	2	-1	0	0	0	0	0	0	0	0	0	0	0	0	0		487	150	0	20600	0	0	6970	0	2500	0	500	0	30	0	정의와 어둠의 힘을 둘 다 갖춘 냥코 군단의 구세주들!★자세한 내용은 배너를 탭!
20220106	1100	20220110	1100	110000	999999	0	0	1	1	623	150	0	4216	0	0	6770	0	2500	0	700	0	30	0	계절 한정 캐릭터 총집합!★울슈레 출현율 대폭 UP! '울트라 국왕 축제' 개최 중!
20220106	1100	20220108	1100	110000	999999	0	0	1	2	-1	0	0	0	0	0	0	0	0	0	0	0	0	0		627	150	0	20600	0	0	6970	0	2500	0	500	0	30	0	악마 속성에 강한 신캐릭터 '소환소년 사토루' 참전!★자세한 내용은 배너를 클릭!
20220108	1100	20220110	1100	110000	999999	0	0	1	2	-1	0	0	0	0	0	0	0	0	0	0	0	0	0		475	150	0	20600	0	0	6970	0	2500	0	500	0	30	0	냥코 월드 최대급 진화! 초고대 전설의 용사들!★자세한 내용은 배너를 클릭!
[end]
