[start]
20180109	1100	20300101	1100	50700	999999	0	0	0	1	0	0	0	0	10000	0	0	0	0	0	0	0	0	0	
20160101	0	20300101	0	50700	999999	0	0	1	1	0	150	0	0	0	0	7500	0	2000	0	500	0	0	0	只有從這個轉蛋才能拿到的限定角色等著你喔！
20170101	0	20300101	0	80200	999999	0	0	2	3	0	30	0	0	0	0	7500	0	2000	0	500	0	0	0		0	30	0	0	0	0	7500	0	2000	0	500	0	0	0		0	30	0	0	0	0	7500	0	2000	0	500	0	0	0	
20170101	0	20300101	0	80200	999999	0	0	3	3	0	75	0	0	0	0	7500	0	2000	0	500	0	0	0		0	75	0	0	0	0	7500	0	2000	0	500	0	0	0		0	75	0	0	0	0	7500	0	2000	0	500	0	0	0	
20181013	1100	20300101	1100	70400	999999	0	0	1	4	-1	150	0	0	0	0	7500	0	2000	0	500	0	0	0		-1	150	0	0	0	0	7500	0	2000	0	500	0	0	0		-1	150	0	0	0	0	7500	0	2000	0	500	0	0	0		320	0	0	0	0	0	0	0	0	0	10000	0	0	0	必出超激稀有角色的白金轉蛋！快來獲得心儀的貓咪吧！
20191012	1100	20300101	1100	80900	999999	0	0	1	4	-1	150	0	0	0	0	7500	0	2000	0	500	0	0	0		-1	150	0	0	0	0	7500	0	2000	0	500	0	0	0		-1	150	0	0	0	0	7500	0	2000	0	500	0	0	0		401	0	0	0	0	0	0	0	0	0	10000	0	0	0	必出超激稀有角色的白金轉蛋！快來獲得心儀的貓咪吧！
20191029	1100	20300101	1100	80900	999999	0	0	1	4	-1	0	0	0	0	0	0	0	0	0	0	0	0	0		-1	0	0	0	0	0	0	0	0	0	0	0	0	0		-1	0	0	0	0	0	0	0	0	0	0	0	0	0		407	0	0	0	0	0	0	0	0	0	10000	0	0	0	必出超激稀有角色的白金轉蛋！快來獲得心儀的貓咪吧！
20191116	1100	20191202	0	81000	999999	0	0	0	4	-1	0	0	0	0	0	0	0	0	0	0	0	0	0		-1	0	0	0	0	0	0	0	0	0	0	0	0	0		-1	0	0	0	0	0	0	0	0	0	0	0	0	0		34	0	300	0	0	0	5100	0	3500	0	1400	0	0	0	限時開放★能夠獲得喵力達與XP的特別轉蛋！★12月1日為止！
20191118	1100	20191203	0	81000	999999	0	0	0	3	-1	0	0	0	0	0	0	0	0	0	0	0	0	0		-1	0	0	0	0	0	0	0	0	0	0	0	0	0		36	0	0	0	0	0	7400	0	2100	0	500	0	0	0	限時開放！收集小小貓咪的好機會！★開放到2019年12月2日！
20191125	1100	20191127	1100	81000	999999	0	0	1	1	369	150	0	3784	0	0	6970	0	2500	0	500	0	30	0	具備各種獨特能力的貓咪們！還有新神秘角色！？★點圖可以看詳細內容喔！
20191127	1100	20191129	1100	81000	999999	0	0	1	1	377	150	0	3784	0	0	6970	0	2500	0	500	0	30	0	貓咪軍團珍藏的超級武器！神秘角色新登場！？★點圖可以看詳細內容喔！
20191129	1100	20191202	1100	90000	999999	0	0	1	1	408	150	0	3784	0	0	6970	0	2500	0	500	1	30	0	角龍格拉迪歐斯參戰！壓倒性存在感的龍族們！★點圖可以看詳細內容喔！
20191129	1100	20300101	1100	90000	999999	0	0	1	4	-1	0	0	0	0	0	0	0	0	0	0	0	0	0		-1	0	0	0	0	0	0	0	0	0	0	0	0	0		-1	0	0	0	0	0	0	0	0	0	0	0	0	0		413	0	0	0	0	0	0	0	0	0	10000	0	0	0	必出超激稀有角色的白金轉蛋！快來獲得心儀的貓咪吧！
20191202	1100	20191204	1100	90000	999999	0	0	1	1	402	150	0	0	0	0	6970	0	2500	0	500	0	30	0	英雄令媛蜜斯參戰！充滿力量可愛的電腦少女們！★點圖確認詳細吧！！
20191202	1100	20191209	1100	90000	999999	0	0	0	2	-1	0	0	0	0	0	0	0	0	0	0	0	0	0		3	0	300	0	400	0	2000	0	7000	0	600	0	0	0	限時開放★有機會入手貓薄荷的活動限定特別轉蛋！
20191204	1100	20191206	1100	90000	999999	0	0	1	1	362	150	0	0	0	0	6970	0	2500	0	500	0	30	0	進化後大變身的古代勇者們！神秘角色新登場！？★點圖可以看詳細內容喔！
20191206	1100	20191209	1100	90000	999999	0	0	1	1	411	150	0	0	0	0	6500	0	2600	0	900	0	0	0	超強的限定角色「幼傑達太貓」登場！★超激出現率大幅上升！
[end]
