[start]
20180109	1100	20300101	0	60700	999999	0	0	0	1	0	0	0	0	10000	0	0	0	0	0	0	0	0	0	
20160101	0	20300101	0	50700	999999	0	0	1	1	0	150	0	0	0	0	7500	0	2000	0	500	0	0	0	ここでしか手に入らないキャラクターが必ず出現！しかもレアキャラ以上確定!!
20180101	0	20300101	0	50700	999999	0	0	2	2	33	30	0	0	0	0	7500	0	2000	0	500	0	0	0		23	30	0	0	0	0	7500	0	2000	0	500	0	0	0	
20180101	0	20300101	0	50700	999999	0	0	3	2	33	75	0	0	0	0	7500	0	2000	0	500	0	0	0		23	75	0	0	0	0	7500	0	2000	0	500	0	0	0	
20180915	1100	20300101	0	70400	999999	0	0	1	4	-1	150	0	0	0	0	7500	0	2000	0	500	0	0	0		-1	150	0	0	0	0	7500	0	2000	0	500	0	0	0		-1	150	0	0	0	0	7500	0	2000	0	500	0	0	0		320	0	0	0	0	0	0	0	0	0	10000	0	0	0	超激レアのキャラクターが必ず１体手に入る「プラチナガチャ」！
20190316	1100	20190401	2359	80300	999999	0	0	0	4	-1	150	0	0	0	0	7500	0	2000	0	500	0	0	0		-1	150	0	0	0	0	7500	0	2000	0	500	0	0	0		-1	150	0	0	0	0	7500	0	2000	0	500	0	0	0		21	0	300	0	0	0	5100	0	3500	0	1400	0	0	0	【期間限定】ネコビタンとXPが手に入る特別仕様ガチャ！★4月1日まで！
20190311	1100	20190318	1100	80300	999999	0	0	0	2	-1	150	0	0	0	0	7500	0	2000	0	500	0	0	0		5	0	0	2	500	0	7000	0	2000	0	500	0	0	0	高確率でキャッツアイが手に入るイベント限定特別ガチャ！　3月18日11時まで！
20190313	1100	20190315	1100	80300	999999	0	0	1	1	335	150	0	0	0	0	6970	0	2500	0	500	0	30	0	パワフルでキュートな電脳少女達！シークレット新参戦！？★詳細はバナーをタップ!!
20190315	1100	20190318	1100	80300	999999	0	0	1	1	361	150	0	0	0	0	6500	0	2600	0	900	0	0	0	限定キャラ「影傑ダークダルターニャ」も参戦！★超激レア出現率が今だけ超アップ!!
20190318	1100	20190401	1100	80303	999999	0	0	1	1	375	150	0	0	0	0	7000	0	2500	0	500	0	0	0	『生きろ!マンボウ!』コラボガチャ登場！★詳細はバナーをタップ!!
20190318	1100	20190320	1100	80303	999999	0	0	1	2	-1	150	0	0	0	0	7500	0	2000	0	500	0	0	0		336	150	0	0	0	0	6970	0	2500	0	500	0	30	0	圧倒的な存在感を放つドラゴン達！シークレット新参戦！？★詳細はバナーをタップ!!
20190320	1100	20190322	1100	80303	999999	0	0	1	2	-1	150	0	0	0	0	7500	0	2000	0	500	0	0	0		351	150	0	0	0	0	7000	0	2500	0	500	0	0	0	宇宙の果てからやって来た、個性的で楽しい精霊達！★詳細はバナーをタップ!!
20190322	1100	20190325	1100	80303	999999	0	0	1	2	-1	150	0	0	0	0	7500	0	2000	0	500	0	0	0		369	150	0	0	0	0	6970	0	2500	0	500	0	30	0	世界一即戦力になるにゃんこ達！シークレット新参戦！？★詳細はバナーをタップ!!
20190325	1100	20190401	1100	80303	999999	0	0	1	1	376	150	0	0	0	0	7000	0	2500	0	500	0	0	0	『生きろ!マンボウ!』コラボガチャ登場！★詳細はバナーをタップ!!
20190325	1100	20190327	1100	80303	999999	0	0	1	2	-1	150	0	0	0	0	7500	0	2000	0	500	0	0	0		345	150	0	0	0	0	7000	0	2500	0	500	0	0	0	にゃんこワールドの偉大なる神々、ここに集結！★詳細はバナーをタップ!!
[end]
