[start]
20180109	1100	20300101	0	60700	999999	0	0	0	1	0	0	0	0	10000	0	0	0	0	0	0	0	0	0	
20160101	0	20300101	0	50700	999999	0	0	1	1	0	150	0	0	0	0	7500	0	2000	0	500	0	0	0	ここでしか手に入らないキャラクターが必ず出現！しかもレアキャラ以上確定!!
20180101	0	20300101	0	80200	999999	0	0	2	3	33	30	0	0	0	0	7500	0	2000	0	500	0	0	0		23	30	0	0	0	0	7500	0	2000	0	500	0	0	0		0	30	0	0	0	0	7500	0	2000	0	500	0	0	0	
20180101	0	20300101	0	80200	999999	0	0	3	3	33	75	0	0	0	0	7500	0	2000	0	500	0	0	0		23	75	0	0	0	0	7500	0	2000	0	500	0	0	0		0	75	0	0	0	0	7500	0	2000	0	500	0	0	0	
20191209	1100	20300101	000	90100	999999	0	0	1	4	-1	0	0	0	0	0	0	0	0	0	0	0	0	0		-1	0	0	0	0	0	0	0	0	0	0	0	0	0		-1	0	0	0	0	0	0	0	0	0	0	0	0	0		480	0	0	0	0	0	0	0	0	0	10000	0	0	0	超激レアのキャラクターが必ず１体手に入る「プラチナガチャ」！
20200131	1100	20300101	000	90200	999999	0	0	1	4	-1	0	0	0	0	0	0	0	0	0	0	0	0	0		-1	0	0	0	0	0	0	0	0	0	0	0	0	0		-1	0	0	0	0	0	0	0	0	0	0	0	0	0		484	0	0	0	0	0	0	0	0	0	10000	0	0	0	超激レアのキャラクターが必ず１体手に入る「プラチナガチャ」！
20200222	1100	20200302	1100	90300	999999	0	0	0	2	-1	0	0	0	0	0	0	0	0	0	0	0	0	0		3	0	300	0	400	0	2000	0	7000	0	600	0	0	0	高確率でマタタビが手に入るイベント限定特別ガチャ！　3月2日11時まで！
20200216	1100	20200301	2359	90300	999999	0	0	0	4	-1	0	0	0	0	0	0	0	0	0	0	0	0	0		-1	0	0	0	0	0	0	0	0	0	0	0	0	0		-1	0	0	0	0	0	0	0	0	0	0	0	0	0		38	0	300	0	0	0	5100	0	3500	0	1400	0	0	0	【期間限定】ネコビタンとXPが手に入る特別仕様ガチャ！★3月1日まで！
20200221	1100	20300101	000	90300	999999	0	0	1	4	-1	0	0	0	0	0	0	0	0	0	0	0	0	0		-1	0	0	0	0	0	0	0	0	0	0	0	0	0		-1	0	0	0	0	0	0	0	0	0	0	0	0	0		492	0	0	0	0	0	0	0	0	0	10000	0	0	0	超激レアのキャラクターが必ず１体手に入る「プラチナガチャ」！
20200224	1100	20200226	1100	90300	999999	0	0	1	1	421	150	0	0	0	0	6970	0	2500	0	500	0	30	0	謎だらけのキモかわ生命体！シークレット新参戦！？★詳細はバナーをタップ!!
20200226	1100	20200228	1100	90300	999999	0	0	1	1	454	150	0	0	0	0	7000	0	2500	0	500	0	0	0	異世界より召喚された愉快なモンスター美少女達！★詳細はバナーをタップ!!
20200228	1100	20200302	1100	90300	999999	0	0	1	1	490	150	0	0	0	0	6500	0	2600	0	900	0	0	0	強力な限定キャラ「厄災の子キャスリィ」も参戦！★超激レア出現率が今だけ超アップ!!
20200302	1100	20200304	1100	90300	999999	0	0	1	1	451	150	0	4	0	0	7000	0	2500	0	500	0	0	0	赤い敵対策はお任せ！限定キャラも登場する特別版！★おまけアップイベント開催中!!
20200304	1100	20200306	1100	90300	999999	0	0	1	1	424	150	0	0	0	0	6970	0	2500	0	500	0	30	0	ラスヴォース参戦！世界一即戦力になるにゃんこ達！★詳細はバナーをタップ!!
20200306	1100	20200309	1100	90400	999999	0	0	1	1	497	150	0	0	0	0	6970	0	2500	0	500	1	30	0	冥界神ハデス参戦！にゃんこワールドの偉大なる神々！★詳細はバナーをタップ!!
20200306	1100	20300101	000	90400	999999	0	0	1	4	-1	0	0	0	0	0	0	0	0	0	0	0	0	0		-1	0	0	0	0	0	0	0	0	0	0	0	0	0		-1	0	0	0	0	0	0	0	0	0	0	0	0	0		504	0	0	0	0	0	0	0	0	0	10000	0	0	0	超激レアのキャラクターが必ず１体手に入る「プラチナガチャ」！
[end]
