[start]
20180109	1100	20300101	0	60700	999999	0	0	0	1	0	0	0	0	10000	0	0	0	0	0	0	0	0	0	
20180101	0	20300101	0	80200	999999	0	0	2	3	33	30	0	0	0	0	7500	0	2000	0	500	0	0	0		23	30	0	0	0	0	7500	0	2000	0	500	0	0	0		0	30	0	0	0	0	7500	0	2000	0	500	0	0	0	
20180101	0	20300101	0	80200	999999	0	0	3	3	33	75	0	0	0	0	7500	0	2000	0	500	0	0	0		23	75	0	0	0	0	7500	0	2000	0	500	0	0	0		0	75	0	0	0	0	7500	0	2000	0	500	0	0	0	
20210426	1100	20300101	000	100400	999999	0	0	0	3	-1	0	0	0	0	0	0	0	0	0	0	0	0	0		-1	0	0	0	0	0	0	0	0	0	0	0	0	0		62	0	0	0	0	0	7400	0	2100	0	500	0	0	0	ちびネコ達が手に入る特別仕様のイベントガチャ！
20210316	1100	20300101	000	100400	999999	0	0	0	4	-1	0	0	0	0	0	0	0	0	0	0	0	0	0		-1	0	0	0	0	0	0	0	0	0	0	0	0	0		-1	0	0	0	0	0	0	0	0	0	0	0	0	0		63	0	300	0	0	0	5100	0	3500	0	1400	0	0	0	ネコビタンとXPが手に入る特別仕様ガチャ！
20211115	1100	20211227	2359	110000	999999	0	0	4	2	-1	0	0	0	0	0	0	0	0	0	0	0	0	0				16	0	0	0	1000	0	5000	0	3000	0	1000	1	0	0	【Q周年】はてなボックスで回せる限定ガチャ！★12月27日まで	このガチャをあと	回ガチャれば限定キャラクターが必ず出現！
20211206	1100	20211227	2359	110000	999999	0	0	4	2	-1	0	0	0	0	0	0	0	0	0	0	0	0	0				16	0	0	0	1000	0	4500	0	2500	0	2000	1	0	0	【Q周年】はてなボックスで回せる限定ガチャ！★12月27日まで	このガチャをあと	回ガチャれば限定キャラクターが必ず出現！
20211213	1100	20211227	1100	110000	999999	0	0	0	2	-1	0	0	0	0	0	0	0	0	0	0	0	0	0		3	0	300	0	400	0	2000	0	7000	0	600	0	0	0	高確率でマタタビが手に入るイベント限定特別ガチャ！
20211213	1100	20211215	1100	110000	999999	0	0	1	1	664	150	0	0	0	0	6970	0	2500	0	500	0	30	0	Q周年記念！感謝の気持ちを込めた特別セレクションガチャ！★詳細はバナーをタップ!!
20211213	1100	20211215	1100	110000	999999	0	0	1	2	-1	0	0	0	0	0	0	0	0	0	0	0	0	0		660	150	0	16384	0	0	6970	0	2500	0	500	0	30	0	悪魔とエイリアンに強い新キャラ「白騎士キュクロプス」参戦！★詳細はバナーをタップ!!
20211215	1100	20211217	1100	110000	999999	0	0	1	1	665	150	0	0	0	0	6970	0	2500	0	500	0	30	0	Q周年記念！感謝の気持ちを込めた特別セレクションガチャ！★詳細はバナーをタップ!!
20211215	1100	20211217	1100	110000	999999	0	0	1	2	-1	0	0	0	0	0	0	0	0	0	0	0	0	0		630	150	0	16384	0	0	6970	0	2500	0	500	0	30	0	赤い敵と悪魔属性に強い新キャラ「邪龍ヘヴィジャーク」参戦！★詳細はバナーをタップ!!
20211208	000	20300101	000	110100	999999	0	0	0	1	64	0	2300	0	10000	0	0	0	0	0	0	0	0	0	
20211126	1100	20300101	000	110000	999999	0	0	1	4	-1	0	0	0	0	0	0	0	0	0	0	0	0	0		-1	0	0	0	0	0	0	0	0	0	0	0	0	0		-1	0	0	0	0	0	0	0	0	0	0	0	0	0		674	0	0	0	0	0	0	0	0	0	9500	0	500	0	超激レア以上のキャラクターが必ず１体手に入る「レジェンドガチャ」！
20211126	1100	20300101	000	110000	999999	0	0	1	5	-1	0	0	0	0	0	0	0	0	0	0	0	0	0		-1	0	0	0	0	0	0	0	0	0	0	0	0	0		-1	0	0	0	0	0	0	0	0	0	0	0	0	0		-1	0	0	0	0	0	0	0	0	0	0	0	0	0		672	0	0	0	0	0	0	0	0	0	10000	0	0	0	超激レアのキャラクターが必ず１体手に入る「プラチナガチャ」！
20211217	1100	20211220	1100	110100	999999	0	0	1	1	682	150	0	0	0	0	6500	0	2600	0	900	0	0	0	新キャラ「黒獣ガルディアン」参戦！★超激レア出現率超アップの「極ネコ祭」開催中!!
20211217	1100	20211227	1100	110100	999999	0	0	1	2	-1	0	0	0	0	0	0	0	0	0	0	0	0	0		668	150	0	16384	0	0	7000	0	2500	0	500	0	0	0	一部クリスマス限定キャラクターの第3形態追加！★詳細はバナーをタップ!!	0	0
20211220	1100	20211222	1100	110100	999999	0	0	1	1	523	150	0	4	0	0	7000	0	2500	0	500	0	0	0	敵の波動攻撃に強いキャラが揃う「波動バスターズ」！★おまけアップイベント開催中!!	0
20211220	1100	20211227	2359	110100	999999	0	0	4	1	15	0	0	0	1000	0	4000	0	2000	0	3000	1	0	0	◀左右のボタンで【Q周年】イベントガチャに切り替え▶	このガチャをあと	回ガチャれば限定キャラクターが必ず出現！
20211220	1100	20211227	2359	110100	999999	0	0	4	2	-1	0	0	0	0	0	0	0	0	0	0	0	0	0				16	0	0	0	1000	0	4500	0	2500	0	2000	1	0	0	◀左右のボタンで【JRAコラボ】イベントガチャに切り替え▶	このガチャをあと	回ガチャれば限定キャラクターが必ず出現！
20211222	1100	20211224	1100	110100	999999	0	0	1	1	608	150	0	0	0	0	6970	0	2500	0	500	1	30	0	黒い敵と悪魔に強い新キャラクター「天草四郎」参戦！★詳細はバナーをタップ!!
20211222	1100	20211227	1100	110100	999999	0	0	1	2	-1	0	0	0	0	0	0	0	0	0	0	0	0	0		668	150	0	0	0	0	7000	0	2500	0	500	1	0	0	一部クリスマス限定キャラクターの第3形態追加！★11連で超激レア確定!!
20211224	1100	20211227	1100	110100	999999	0	0	1	1	677	150	0	0	0	0	6970	0	2500	0	500	1	30	0	浮いてる敵と悪魔に強い新キャラ「堕天神ルシファー」参戦！★詳細はバナーをタップ!!
20211224	1100	20300101	000	110100	999999	0	0	1	4	-1	0	0	0	0	0	0	0	0	0	0	0	0	0		-1	0	0	0	0	0	0	0	0	0	0	0	0	0		-1	0	0	0	0	0	0	0	0	0	0	0	0	0		686	0	0	0	0	0	0	0	0	0	9500	0	500	0	超激レア以上のキャラクターが必ず１体手に入る「レジェンドガチャ」！
20211224	1100	20300101	000	110100	999999	0	0	1	5	-1	0	0	0	0	0	0	0	0	0	0	0	0	0		-1	0	0	0	0	0	0	0	0	0	0	0	0	0		-1	0	0	0	0	0	0	0	0	0	0	0	0	0		-1	0	0	0	0	0	0	0	0	0	0	0	0	0		684	0	0	0	0	0	0	0	0	0	10000	0	0	0	超激レアのキャラクターが必ず１体手に入る「プラチナガチャ」！
[end]
