[start]
20180109	1100	20300101	0	60700	999999	0	0	0	1	0	0	0	0	10000	0	0	0	0	0	0	0	0	0	
20180101	0	20300101	0	80200	999999	0	0	2	3	33	30	0	0	0	0	7500	0	2000	0	500	0	0	0		23	30	0	0	0	0	7500	0	2000	0	500	0	0	0		0	30	0	0	0	0	7500	0	2000	0	500	0	0	0	
20180101	0	20300101	0	80200	999999	0	0	3	3	33	75	0	0	0	0	7500	0	2000	0	500	0	0	0		23	75	0	0	0	0	7500	0	2000	0	500	0	0	0		0	75	0	0	0	0	7500	0	2000	0	500	0	0	0	
20210426	1100	20300101	000	100400	999999	0	0	0	3	-1	0	0	0	0	0	0	0	0	0	0	0	0	0		-1	0	0	0	0	0	0	0	0	0	0	0	0	0		62	0	0	0	0	0	7400	0	2100	0	500	0	0	0	ちびネコ達が手に入る特別仕様のイベントガチャ！
20210316	1100	20300101	000	100400	999999	0	0	0	4	-1	0	0	0	0	0	0	0	0	0	0	0	0	0		-1	0	0	0	0	0	0	0	0	0	0	0	0	0		-1	0	0	0	0	0	0	0	0	0	0	0	0	0		63	0	300	0	0	0	5100	0	3500	0	1400	0	0	0	ネコビタンとXPが手に入る特別仕様ガチャ！
20211208	000	20300101	000	110100	999999	0	0	0	1	64	0	2300	0	10000	0	0	0	0	0	0	0	0	0	
20211126	1100	20300101	000	110000	999999	0	0	1	4	-1	0	0	0	0	0	0	0	0	0	0	0	0	0		-1	0	0	0	0	0	0	0	0	0	0	0	0	0		-1	0	0	0	0	0	0	0	0	0	0	0	0	0		674	0	0	0	0	0	0	0	0	0	9500	0	500	0	超激レア以上のキャラクターが必ず１体手に入る「レジェンドガチャ」！
20211126	1100	20300101	000	110000	999999	0	0	1	5	-1	0	0	0	0	0	0	0	0	0	0	0	0	0		-1	0	0	0	0	0	0	0	0	0	0	0	0	0		-1	0	0	0	0	0	0	0	0	0	0	0	0	0		-1	0	0	0	0	0	0	0	0	0	0	0	0	0		672	0	0	0	0	0	0	0	0	0	10000	0	0	0	超激レアのキャラクターが必ず１体手に入る「プラチナガチャ」！
20211224	1100	20300101	000	110100	999999	0	0	1	4	-1	0	0	0	0	0	0	0	0	0	0	0	0	0		-1	0	0	0	0	0	0	0	0	0	0	0	0	0		-1	0	0	0	0	0	0	0	0	0	0	0	0	0		686	0	0	0	0	0	0	0	0	0	9500	0	500	0	超激レア以上のキャラクターが必ず１体手に入る「レジェンドガチャ」！
20211224	1100	20300101	000	110100	999999	0	0	1	5	-1	0	0	0	0	0	0	0	0	0	0	0	0	0		-1	0	0	0	0	0	0	0	0	0	0	0	0	0		-1	0	0	0	0	0	0	0	0	0	0	0	0	0		-1	0	0	0	0	0	0	0	0	0	0	0	0	0		684	0	0	0	0	0	0	0	0	0	10000	0	0	0	超激レアのキャラクターが必ず１体手に入る「プラチナガチャ」！
20220101	000	20300101	000	110100	999999	0	0	1	4	-1	0	0	0	0	0	0	0	0	0	0	0	0	0		-1	0	0	0	0	0	0	0	0	0	0	0	0	0		-1	0	0	0	0	0	0	0	0	0	0	0	0	0		687	0	0	0	0	0	0	0	0	0	9500	0	500	0	超激レア以上のキャラクターが必ず１体手に入る「レジェンドガチャ」！
20220101	000	20300101	000	110100	999999	0	0	1	5	-1	0	0	0	0	0	0	0	0	0	0	0	0	0		-1	0	0	0	0	0	0	0	0	0	0	0	0	0		-1	0	0	0	0	0	0	0	0	0	0	0	0	0		-1	0	0	0	0	0	0	0	0	0	0	0	0	0		685	0	0	0	0	0	0	0	0	0	10000	0	0	0	超激レアのキャラクターが必ず１体手に入る「プラチナガチャ」！
20220121	1100	20300101	000	110200	999999	0	0	1	4	-1	0	0	0	0	0	0	0	0	0	0	0	0	0		-1	0	0	0	0	0	0	0	0	0	0	0	0	0		-1	0	0	0	0	0	0	0	0	0	0	0	0	0		703	0	0	0	0	0	0	0	0	0	9500	0	500	0	超激レア以上のキャラクターが必ず１体手に入る「レジェンドガチャ」！
20220121	1100	20300101	000	110200	999999	0	0	1	5	-1	0	0	0	0	0	0	0	0	0	0	0	0	0		-1	0	0	0	0	0	0	0	0	0	0	0	0	0		-1	0	0	0	0	0	0	0	0	0	0	0	0	0		-1	0	0	0	0	0	0	0	0	0	0	0	0	0		702	0	0	0	0	0	0	0	0	0	10000	0	0	0	超激レアのキャラクターが必ず１体手に入る「プラチナガチャ」！
20220131	1100	20220214	2359	110200	999999	0	0	4	1	17	0	0	0	1000	0	5000	0	3000	0	1000	1	0	0	【春節イベント】伝説の縁起物で回せる限定ガチャ！★2月14日まで	このガチャをあと	回ガチャれば限定キャラクターが必ず出現！
20220131	1100	20220214	1100	110200	999999	0	0	1	3	-1	0	0	0	0	0	0	0	0	0	0	0	0	0		-1	0	0	0	0	0	0	0	0	0	0	0	0	0		696	150	0	4	0	0	7000	0	2500	0	500	0	0	0	登場キャラ追加！限定キャラも登場する特別版！★おまけアップイベント開催中!!
20220214	1100	20220221	1100	110200	999999	0	0	0	2	-1	0	0	0	0	0	0	0	0	0	0	0	0	0		5	0	0	2	500	0	7000	0	2000	0	500	0	0	0	高確率でキャッツアイが手に入るイベント限定特別ガチャ！
20220207	1100	20220221	1100	110200	999999	0	0	1	2	-1	0	0	0	0	0	0	0	0	0	0	0	0	0		698	150	0	4216	0	0	7000	0	2500	0	500	0	0	0	新キャラ追加！バレンタイン期間限定のスイートなガチャ！★詳細はバナーをタップ!!
20220211	1100	20220214	1100	110200	999999	0	0	1	1	701	150	0	4216	0	0	6500	0	2600	0	900	0	0	0	新キャラ「黒獣ガルディアン」参戦！★超激レア出現率超アップの「極ネコ祭」開催中!!
20220214	1100	20220216	1100	110200	999999	0	0	1	1	647	150	0	20600	0	0	6970	0	2500	0	500	0	30	0	エイリアンと悪魔に強い新キャラ「闇の精霊ヤミィ」参戦！★詳細はバナーをタップ!!
20220207	1100	20220214	1100	110200	999999	0	0	1	3	-1	0	0	0	0	0	0	0	0	0	0	0	0	0		-1	0	0	0	0	0	0	0	0	0	0	0	0	0		696	150	0	4220	0	0	7000	0	2500	0	500	0	0	0	登場キャラ追加！限定キャラも登場する特別版！★おまけアップイベント開催中!!
20220221	1100	20220228	1100	110200	999999	0	0	0	2	-1	0	0	0	0	0	0	0	0	0	0	0	0	0		3	0	300	0	400	0	2000	0	7000	0	600	0	0	0	高確率でマタタビが手に入るイベント限定特別ガチャ！
20220216	1100	20220219	1100	110200	999999	0	0	1	1	626	150	0	4216	0	0	6970	0	2500	0	500	1	30	0	バリアもシールドも破壊する新キャラクター「オコルガ」参戦！★詳細はバナーをタップ!!
20220216	1100	20220221	1100	110200	999999	0	0	1	2	-1	0	0	0	0	0	0	0	0	0	0	0	0	0		698	150	0	4216	0	0	7000	0	2500	0	500	1	0	0	新キャラ追加！バレンタイン期間限定のスイートなガチャ！★11連で超激レア確定!!
20220219	1100	20220221	1100	110200	999999	0	0	1	1	631	150	0	4216	0	0	6970	0	2500	0	500	1	30	0	赤い敵と悪魔属性に強い新キャラ「邪龍ヘヴィジャーク」参戦！★詳細はバナーをタップ!!
20220221	1100	20220223	1100	110200	999999	0	0	1	1	662	150	0	16384	0	0	6970	0	2500	0	500	0	30	0	悪魔とエイリアンに強い新キャラ「白騎士キュクロプス」参戦！★詳細はバナーをタップ!!
20220223	1100	20220225	1100	110300	999999	0	0	1	1	452	150	0	4	0	0	7000	0	2500	0	500	0	0	0	浮いてる敵に対して強力効果の「エアバスターズ」！★おまけアップイベント開催中!!	0
20220223	1100	20220225	1100	110300	999999	0	0	1	2	-1	0	0	0	0	0	0	0	0	0	0	0	0	0		710	150	0	4	0	0	7000	0	2500	0	500	0	0	0	メタルな敵に効果絶大！限定キャラも登場の特別版！★おまけアップイベント開催中!!	0	0
[end]
